^G:\PROGRAMING\AUDIORECORDER\AUDIORECORDER\AUDIORECORDER\FOURIER\FOURIER.CPP
/c /I"G:\PROGRAMING\VCPKG\VCPKG\INSTALLED\X86-WINDOWS\INCLUDE" /Zi /nologo /W3 /WX- /diagnostics:column /sdl /O2 /Oi /Oy- /GL /D _MBCS /Gm- /EHsc /MD /GS /Gy /fp:precise /permissive- /Zc:wchar_t /Zc:forScope /Zc:inline /Fo"RELEASE\\" /Fd"RELEASE\VC142.PDB" /Gd /TP /analyze- /FC G:\PROGRAMING\AUDIORECORDER\AUDIORECORDER\AUDIORECORDER\FOURIER\FOURIER.CPP
^G:\PROGRAMING\AUDIORECORDER\AUDIORECORDER\AUDIORECORDER\GENERALGUARD\GENERALGUARD.CPP
/c /I"G:\PROGRAMING\VCPKG\VCPKG\INSTALLED\X86-WINDOWS\INCLUDE" /Zi /nologo /W3 /WX- /diagnostics:column /sdl /O2 /Oi /Oy- /GL /D _MBCS /Gm- /EHsc /MD /GS /Gy /fp:precise /permissive- /Zc:wchar_t /Zc:forScope /Zc:inline /Fo"RELEASE\\" /Fd"RELEASE\VC142.PDB" /Gd /TP /analyze- /FC G:\PROGRAMING\AUDIORECORDER\AUDIORECORDER\AUDIORECORDER\GENERALGUARD\GENERALGUARD.CPP
^G:\PROGRAMING\AUDIORECORDER\AUDIORECORDER\AUDIORECORDER\AUDIODEVICE\AUDIOINPUT.CPP
/c /I"G:\PROGRAMING\VCPKG\VCPKG\INSTALLED\X86-WINDOWS\INCLUDE" /Zi /nologo /W3 /WX- /diagnostics:column /sdl /O2 /Oi /Oy- /GL /D _MBCS /Gm- /EHsc /MD /GS /Gy /fp:precise /permissive- /Zc:wchar_t /Zc:forScope /Zc:inline /Fo"RELEASE\\" /Fd"RELEASE\VC142.PDB" /Gd /TP /analyze- /FC G:\PROGRAMING\AUDIORECORDER\AUDIORECORDER\AUDIORECORDER\AUDIODEVICE\AUDIOINPUT.CPP
^G:\PROGRAMING\AUDIORECORDER\AUDIORECORDER\AUDIORECORDER\SOURCE.CPP
/c /I"G:\PROGRAMING\VCPKG\VCPKG\INSTALLED\X86-WINDOWS\INCLUDE" /Zi /nologo /W3 /WX- /diagnostics:column /sdl /O2 /Oi /Oy- /GL /D _MBCS /Gm- /EHsc /MD /GS /Gy /fp:precise /permissive- /Zc:wchar_t /Zc:forScope /Zc:inline /Fo"RELEASE\\" /Fd"RELEASE\VC142.PDB" /Gd /TP /analyze- /FC G:\PROGRAMING\AUDIORECORDER\AUDIORECORDER\AUDIORECORDER\SOURCE.CPP
