^G:\programing\AudioRecorder\AudioRecorder\Debug\AudioRecorder.exe
G:\programing\AudioRecorder\AudioRecorder\AudioRecorder\Debug\vcpkg.applocal.log
^G:\programing\AudioRecorder\AudioRecorder\Debug\AudioRecorder.exe
G:\programing\AudioRecorder\AudioRecorder\AudioRecorder\Debug\vcpkg.applocal.log
^G:\programing\AudioRecorder\AudioRecorder\Debug\AudioRecorder.exe
G:\programing\AudioRecorder\AudioRecorder\AudioRecorder\Debug\vcpkg.applocal.log
^G:\programing\AudioRecorder\AudioRecorder\Debug\AudioRecorder.exe
G:\programing\AudioRecorder\AudioRecorder\AudioRecorder\Debug\vcpkg.applocal.log
^G:\programing\AudioRecorder\AudioRecorder\Debug\AudioRecorder.exe
G:\programing\AudioRecorder\AudioRecorder\AudioRecorder\Debug\vcpkg.applocal.log
^G:\programing\AudioRecorder\AudioRecorder\Debug\AudioRecorder.exe
G:\programing\AudioRecorder\AudioRecorder\AudioRecorder\Debug\vcpkg.applocal.log
^G:\programing\AudioRecorder\AudioRecorder\Debug\AudioRecorder.exe
G:\programing\AudioRecorder\AudioRecorder\AudioRecorder\Debug\vcpkg.applocal.log
^G:\programing\AudioRecorder\AudioRecorder\Debug\AudioRecorder.exe
G:\programing\AudioRecorder\AudioRecorder\AudioRecorder\Debug\vcpkg.applocal.log
^G:\programing\AudioRecorder\AudioRecorder\Debug\AudioRecorder.exe
G:\programing\AudioRecorder\AudioRecorder\AudioRecorder\Debug\vcpkg.applocal.log
^G:\programing\AudioRecorder\AudioRecorder\Debug\AudioRecorder.exe
G:\programing\AudioRecorder\AudioRecorder\AudioRecorder\Debug\vcpkg.applocal.log
^G:\programing\AudioRecorder\AudioRecorder\Debug\AudioRecorder.exe
G:\programing\AudioRecorder\AudioRecorder\AudioRecorder\Debug\vcpkg.applocal.log
^G:\programing\AudioRecorder\AudioRecorder\Debug\AudioRecorder.exe
G:\programing\AudioRecorder\AudioRecorder\AudioRecorder\Debug\vcpkg.applocal.log
^G:\programing\AudioRecorder\AudioRecorder\Debug\AudioRecorder.exe
G:\programing\AudioRecorder\AudioRecorder\AudioRecorder\Debug\vcpkg.applocal.log
^G:\programing\AudioRecorder\AudioRecorder\Debug\AudioRecorder.exe
G:\programing\AudioRecorder\AudioRecorder\AudioRecorder\Debug\vcpkg.applocal.log
^G:\programing\AudioRecorder\AudioRecorder\Debug\AudioRecorder.exe
G:\programing\AudioRecorder\AudioRecorder\AudioRecorder\Debug\vcpkg.applocal.log
^G:\programing\AudioRecorder\AudioRecorder\Debug\AudioRecorder.exe
G:\programing\AudioRecorder\AudioRecorder\AudioRecorder\Debug\vcpkg.applocal.log
^G:\programing\AudioRecorder\AudioRecorder\Debug\AudioRecorder.exe
G:\programing\AudioRecorder\AudioRecorder\AudioRecorder\Debug\vcpkg.applocal.log
^G:\programing\AudioRecorder\AudioRecorder\Debug\AudioRecorder.exe
G:\programing\AudioRecorder\AudioRecorder\AudioRecorder\Debug\vcpkg.applocal.log
^G:\programing\AudioRecorder\AudioRecorder\Debug\AudioRecorder.exe
G:\programing\AudioRecorder\AudioRecorder\AudioRecorder\Debug\vcpkg.applocal.log
^G:\programing\AudioRecorder\AudioRecorder\Debug\AudioRecorder.exe
G:\programing\AudioRecorder\AudioRecorder\AudioRecorder\Debug\vcpkg.applocal.log
^G:\programing\AudioRecorder\AudioRecorder\Debug\AudioRecorder.exe
G:\programing\AudioRecorder\AudioRecorder\AudioRecorder\Debug\vcpkg.applocal.log
^G:\programing\AudioRecorder\AudioRecorder\Debug\AudioRecorder.exe
G:\programing\AudioRecorder\AudioRecorder\AudioRecorder\Debug\vcpkg.applocal.log
^G:\programing\AudioRecorder\AudioRecorder\Debug\AudioRecorder.exe
G:\programing\AudioRecorder\AudioRecorder\AudioRecorder\Debug\vcpkg.applocal.log
^G:\programing\AudioRecorder\AudioRecorder\Debug\AudioRecorder.exe
G:\programing\AudioRecorder\AudioRecorder\AudioRecorder\Debug\vcpkg.applocal.log
^G:\programing\AudioRecorder\AudioRecorder\Debug\AudioRecorder.exe
G:\programing\AudioRecorder\AudioRecorder\AudioRecorder\Debug\vcpkg.applocal.log
^G:\programing\AudioRecorder\AudioRecorder\Debug\AudioRecorder.exe
G:\programing\AudioRecorder\AudioRecorder\AudioRecorder\Debug\vcpkg.applocal.log
^G:\programing\AudioRecorder\AudioRecorder\Debug\AudioRecorder.exe
G:\programing\AudioRecorder\AudioRecorder\AudioRecorder\Debug\vcpkg.applocal.log
^G:\programing\AudioRecorder\AudioRecorder\Debug\AudioRecorder.exe
G:\programing\AudioRecorder\AudioRecorder\AudioRecorder\Debug\vcpkg.applocal.log
^G:\programing\AudioRecorder\AudioRecorder\Debug\AudioRecorder.exe
G:\programing\AudioRecorder\AudioRecorder\AudioRecorder\Debug\vcpkg.applocal.log
^G:\programing\AudioRecorder\AudioRecorder\Debug\AudioRecorder.exe
G:\programing\AudioRecorder\AudioRecorder\AudioRecorder\Debug\vcpkg.applocal.log
^G:\programing\AudioRecorder\AudioRecorder\Debug\AudioRecorder.exe
G:\programing\AudioRecorder\AudioRecorder\AudioRecorder\Debug\vcpkg.applocal.log
^G:\programing\AudioRecorder\AudioRecorder\Debug\AudioRecorder.exe
G:\programing\AudioRecorder\AudioRecorder\AudioRecorder\Debug\vcpkg.applocal.log
^G:\programing\AudioRecorder\AudioRecorder\Debug\AudioRecorder.exe
G:\programing\AudioRecorder\AudioRecorder\AudioRecorder\Debug\vcpkg.applocal.log
^G:\programing\AudioRecorder\AudioRecorder\Debug\AudioRecorder.exe
G:\programing\AudioRecorder\AudioRecorder\AudioRecorder\Debug\vcpkg.applocal.log
^G:\programing\AudioRecorder\AudioRecorder\Debug\AudioRecorder.exe
G:\programing\AudioRecorder\AudioRecorder\AudioRecorder\Debug\vcpkg.applocal.log
^G:\programing\AudioRecorder\AudioRecorder\Debug\AudioRecorder.exe
G:\programing\AudioRecorder\AudioRecorder\AudioRecorder\Debug\vcpkg.applocal.log
^G:\programing\AudioRecorder\AudioRecorder\Debug\AudioRecorder.exe
G:\programing\AudioRecorder\AudioRecorder\AudioRecorder\Debug\vcpkg.applocal.log
^G:\programing\AudioRecorder\AudioRecorder\Debug\AudioRecorder.exe
G:\programing\AudioRecorder\AudioRecorder\AudioRecorder\Debug\vcpkg.applocal.log
^G:\programing\AudioRecorder\AudioRecorder\Debug\AudioRecorder.exe
G:\programing\AudioRecorder\AudioRecorder\AudioRecorder\Debug\vcpkg.applocal.log
^G:\programing\AudioRecorder\AudioRecorder\Debug\AudioRecorder.exe
G:\programing\AudioRecorder\AudioRecorder\AudioRecorder\Debug\vcpkg.applocal.log
^G:\programing\AudioRecorder\AudioRecorder\Debug\AudioRecorder.exe
G:\programing\AudioRecorder\AudioRecorder\AudioRecorder\Debug\vcpkg.applocal.log
^G:\programing\AudioRecorder\AudioRecorder\Debug\AudioRecorder.exe
G:\programing\AudioRecorder\AudioRecorder\AudioRecorder\Debug\vcpkg.applocal.log
^G:\programing\AudioRecorder\AudioRecorder\Debug\AudioRecorder.exe
G:\programing\AudioRecorder\AudioRecorder\AudioRecorder\Debug\vcpkg.applocal.log
^G:\programing\AudioRecorder\AudioRecorder\Debug\AudioRecorder.exe
G:\programing\AudioRecorder\AudioRecorder\AudioRecorder\Debug\vcpkg.applocal.log
^G:\programing\AudioRecorder\AudioRecorder\Debug\AudioRecorder.exe
G:\programing\AudioRecorder\AudioRecorder\AudioRecorder\Debug\vcpkg.applocal.log
^G:\programing\AudioRecorder\AudioRecorder\Debug\AudioRecorder.exe
G:\programing\AudioRecorder\AudioRecorder\AudioRecorder\Debug\vcpkg.applocal.log
^G:\programing\AudioRecorder\AudioRecorder\Debug\AudioRecorder.exe
G:\programing\AudioRecorder\AudioRecorder\AudioRecorder\Debug\vcpkg.applocal.log
^G:\programing\AudioRecorder\AudioRecorder\Debug\AudioRecorder.exe
G:\programing\AudioRecorder\AudioRecorder\AudioRecorder\Debug\vcpkg.applocal.log
^G:\programing\AudioRecorder\AudioRecorder\Debug\AudioRecorder.exe
G:\programing\AudioRecorder\AudioRecorder\AudioRecorder\Debug\vcpkg.applocal.log
^G:\programing\AudioRecorder\AudioRecorder\Debug\AudioRecorder.exe
G:\programing\AudioRecorder\AudioRecorder\AudioRecorder\Debug\vcpkg.applocal.log
^G:\programing\AudioRecorder\AudioRecorder\Debug\AudioRecorder.exe
G:\programing\AudioRecorder\AudioRecorder\AudioRecorder\Debug\vcpkg.applocal.log
^G:\programing\AudioRecorder\AudioRecorder\Debug\AudioRecorder.exe
G:\programing\AudioRecorder\AudioRecorder\AudioRecorder\Debug\vcpkg.applocal.log
^G:\programing\AudioRecorder\AudioRecorder\Debug\AudioRecorder.exe
G:\programing\AudioRecorder\AudioRecorder\AudioRecorder\Debug\vcpkg.applocal.log
^G:\programing\AudioRecorder\AudioRecorder\Debug\AudioRecorder.exe
G:\programing\AudioRecorder\AudioRecorder\AudioRecorder\Debug\vcpkg.applocal.log
^G:\programing\AudioRecorder\AudioRecorder\Debug\AudioRecorder.exe
G:\programing\AudioRecorder\AudioRecorder\AudioRecorder\Debug\vcpkg.applocal.log
^G:\programing\AudioRecorder\AudioRecorder\Debug\AudioRecorder.exe
G:\programing\AudioRecorder\AudioRecorder\AudioRecorder\Debug\vcpkg.applocal.log
^G:\programing\AudioRecorder\AudioRecorder\Debug\AudioRecorder.exe
G:\programing\AudioRecorder\AudioRecorder\AudioRecorder\Debug\vcpkg.applocal.log
^G:\programing\AudioRecorder\AudioRecorder\Debug\AudioRecorder.exe
G:\programing\AudioRecorder\AudioRecorder\AudioRecorder\Debug\vcpkg.applocal.log
^G:\programing\AudioRecorder\AudioRecorder\Debug\AudioRecorder.exe
G:\programing\AudioRecorder\AudioRecorder\AudioRecorder\Debug\vcpkg.applocal.log
^G:\programing\AudioRecorder\AudioRecorder\Debug\AudioRecorder.exe
G:\programing\AudioRecorder\AudioRecorder\AudioRecorder\Debug\vcpkg.applocal.log
^G:\programing\AudioRecorder\AudioRecorder\Debug\AudioRecorder.exe
G:\programing\AudioRecorder\AudioRecorder\AudioRecorder\Debug\vcpkg.applocal.log
^G:\programing\AudioRecorder\AudioRecorder\Debug\AudioRecorder.exe
G:\programing\AudioRecorder\AudioRecorder\AudioRecorder\Debug\vcpkg.applocal.log
^G:\programing\AudioRecorder\AudioRecorder\Debug\AudioRecorder.exe
G:\programing\AudioRecorder\AudioRecorder\AudioRecorder\Debug\vcpkg.applocal.log
^G:\programing\AudioRecorder\AudioRecorder\Debug\AudioRecorder.exe
G:\programing\AudioRecorder\AudioRecorder\AudioRecorder\Debug\vcpkg.applocal.log
^G:\programing\AudioRecorder\AudioRecorder\Debug\AudioRecorder.exe
G:\programing\AudioRecorder\AudioRecorder\AudioRecorder\Debug\vcpkg.applocal.log
^G:\programing\AudioRecorder\AudioRecorder\Debug\AudioRecorder.exe
G:\programing\AudioRecorder\AudioRecorder\AudioRecorder\Debug\vcpkg.applocal.log
^G:\programing\AudioRecorder\AudioRecorder\Debug\AudioRecorder.exe
G:\programing\AudioRecorder\AudioRecorder\AudioRecorder\Debug\vcpkg.applocal.log
^G:\programing\AudioRecorder\AudioRecorder\Debug\AudioRecorder.exe
G:\programing\AudioRecorder\AudioRecorder\AudioRecorder\Debug\vcpkg.applocal.log
^G:\programing\AudioRecorder\AudioRecorder\Debug\AudioRecorder.exe
G:\programing\AudioRecorder\AudioRecorder\AudioRecorder\Debug\vcpkg.applocal.log
^G:\programing\AudioRecorder\AudioRecorder\Debug\AudioRecorder.exe
G:\programing\AudioRecorder\AudioRecorder\AudioRecorder\Debug\vcpkg.applocal.log
^G:\programing\AudioRecorder\AudioRecorder\Debug\AudioRecorder.exe
G:\programing\AudioRecorder\AudioRecorder\AudioRecorder\Debug\vcpkg.applocal.log
^G:\programing\AudioRecorder\AudioRecorder\Debug\AudioRecorder.exe
G:\programing\AudioRecorder\AudioRecorder\AudioRecorder\Debug\vcpkg.applocal.log
^G:\programing\AudioRecorder\AudioRecorder\Debug\AudioRecorder.exe
G:\programing\AudioRecorder\AudioRecorder\AudioRecorder\Debug\vcpkg.applocal.log
